"title","description","url","license","image_views","creation_time.formatted","modification_time.formatted","geo_data.latitude","geo_data.longitude","geo_data_exif.latitude","geo_data_exif.longitude","tags","people.name","people.email","comments.comment","comments.user_id","comments.email","media_key","hex_photo_id","upload_ip","status","liking_user_ids","album_id","exif.camera_make","exif.camera_model","exif.cell_width","exif.cell_length"
"20160424_133437.jpg","What would Lord Baden-Powell do?

I took my new motorized bicycle to my fishing hole for the first time today. Unfortunately, I was so excited, I forgot the actual fishing rod.

I tell you, no tiny problem like ""no rod"" is going to stop me from fishing!

I ended up cutting down a small tree with a 50 cent paring knife and using it as a fishing rod (old school).

Caught three fish:
* didn't land one
* released the 6 inch trout
* kept the 10.5 inch trout","https://lh3.googleusercontent.com/-k35I1iieric/Vx1AqclkTCI/AAAAAAAACp0/-j2JnZs2JqMuLEAIpn62SxDz9SCjXW2xQCLABGAYYCw/s0-d/20160424_133437.jpg","","1150","24 Apr 2016, 21:54:49 UTC","27 Jan 2018, 21:11:02 UTC","0.0","0.0","0.0","0.0","","","","Also, if anyone knows any good treatments for burns caused when the inside of your wrist touches the engine manifold... they would be appreicated.; <span class=""proflinkWrapper""><span class=""proflinkPrefix"">+</span><a class=""proflink"" href=""https://plus.google.com/116507365748673856018"" oid=""116507365748673856018"">Marie Pike</a></span> dr? what is this &quot;doctor&quot; you speak of?  ;)<br /><br />Thanks for the Hawaiian Tropic suggestion. I love that stuff, but don&#39;t keep much around anymore.; Aloe Vera; Still a good day fishing! Burn and all.; BP would be proud! <br />Also, depending on the severity of the burn... I&#39;d go to a walk in tomorrow. Health care is free, yo! ﻿ ;) ; <span class=""proflinkWrapper""><span class=""proflinkPrefix"">+</span><a class=""proflink"" href=""https://plus.google.com/117350179438932515142"" oid=""117350179438932515142"">Caroline Lobban</a></span> Not free... prepaid. The walk-in in this area, costs about $30. <br /><br />I&#39;ve lived in NS long enough now that I don&#39;t have to pay it, but I gladly would if I thought it would get me in. In my experience, it will take the walk-in 4 hours to tell me I won&#39;t be getting in for 3-4 days. I&#39;ll be in England by then.<br /><br />Alternately, they&#39;ll treat me... In the past that has resulted in a visit to the ER and 3 days off work to patch up whatever the walk-in doctor has done. (One mole removal, and one hemorrhoid lancing, and a coworker sticking a paring knife through her hand... all three of which I personally pulled my debit card out for at the walk-in)<br /><br />In my medical opinion, this requires Bag Balm and Scotch. In The Wife&#39;s medical opinion, this requires me to quit whining and poking at it ;) Maybe I&#39;ll pay a doctor while I&#39;m in England (probably not)<br /><br />Disclaimer: When discussing this issue, I always feel it necessary to point out: health care availability varies from province to province. Caronline, I know you are in urban Alberta; I got an education as to the nature of the problem when I moved to rural Nova Scotia. Having lived both rural and urban in Alberta, I would rate access to healthcare in urban Nova Scotia as worse than rural Alberta.; Wow. That&#39;s quite the dire situation, <span class=""proflinkWrapper""><span class=""proflinkPrefix"">+</span><a class=""proflink"" href=""https://plus.google.com/101274340153601641971"" oid=""101274340153601641971"">Jeff Cave</a></span>​. ; <span class=""proflinkWrapper""><span class=""proflinkPrefix"">+</span><a class=""proflink"" href=""https://plus.google.com/117350179438932515142"" oid=""117350179438932515142"">Caroline Lobban</a></span> I figured it might explain some of my criticism of &quot;health care&quot; you&#39;ve heard from me in the past.","; ; ; ; ; ; ; ","; ; ; ; ; ; ; ","","","","","","","","","0","0"
