"title","description","url","license","image_views","creation_time.formatted","modification_time.formatted","geo_data.latitude","geo_data.longitude","geo_data_exif.latitude","geo_data_exif.longitude","tags","people.name","people.email","comments.comment","comments.user_id","comments.email","media_key","hex_photo_id","upload_ip","status","liking_user_ids","album_id","exif.camera_make","exif.camera_model","exif.cell_width","exif.cell_length"
"20170430_111456.jpg","A good day fishing... mostly because I didn't loose my finger.

Two lessons learned:
1. I hate folding blades
2. My first aid kit should be in my fishing bag, not my shooting bag","https://lh3.googleusercontent.com/-cou9l08RFmU/WQYPvnmp0dI/AAAAAAAAE1c/T0lYfIo2H7oELb0YX3csd1lLFARonOWTQCLABGAYYCw/s0-d/20170430_111456.jpg","","0","30 Apr 2017, 16:24:30 UTC","27 Jan 2018, 21:09:42 UTC","44.68666666666666","-63.683055555555555","44.68666666666666","-63.683055555555555","","","","Did it in the first 10 minutes, and then spent a bunch of time trying to tie a knot while the hook was covered in so much blood I couldn&#39;t see it.<br /><br />... but stop and do first aid? ... noooo.... got to get that line in the water.; <span class=""proflinkWrapper""><span class=""proflinkPrefix"">+</span><a class=""proflink"" href=""https://plus.google.com/117054568470874619985"" oid=""117054568470874619985"">Finnian Cornelison</a></span> I <b>didn&#39;t</b> hate folders, but I started phasing them out a year ago, but found this one in the bottom of a pack over winter. It was a favourite, so it got clipped to the bag.<br /><br />I finished the job with a 50 cent paring knife, and the folder is now in the garbage.; I&#39;m still laughing that I was more angry that the blood was making it difficult to tie the rig, than I was concerned with performing first-aid.<br /><br />HINT: if you are having trouble performing a task because your blood is obscuring your vision... maybe its time to put some pressure on the wound ;)","; ; ","; ; ","","","","","","","","","0","0"
