{
  "title": "9886db9e94272f96e56cb25f513f6b59.jpeg",
  "description": "",
  "url": "https://lh3.googleusercontent.com/-4NFQyP4gRWQ/UR5lH_QzcVI/AAAAAAAABkM/IbT-2xkoCp46GsCQxwaY3a3G6GAbpSc7gCLABGAYYCw/s0-d/9886db9e94272f96e56cb25f513f6b59.jpeg",
  "imageViews": "208",
  "creationTime": {
    "timestamp": "1360946463",
    "formatted": "15 Feb 2013, 16:41:03 UTC"
  },
  "modificationTime": {
    "timestamp": "1492421603",
    "formatted": "17 Apr 2017, 09:33:23 UTC"
  },
  "geoData": {
    "latitude": 0.0,
    "longitude": 0.0,
    "altitude": 0.0,
    "latitudeSpan": 0.0,
    "longitudeSpan": 0.0
  },
  "geoDataExif": {
    "latitude": 0.0,
    "longitude": 0.0,
    "altitude": 0.0,
    "latitudeSpan": 0.0,
    "longitudeSpan": 0.0
  },
  "people": [{
    "name": "Jefferey Cave",
    "email": "",
    "googleProfilePage": "https://plus.google.com/+JeffCave",
    "x": 0.195,
    "y": 0.08,
    "width": 0.66,
    "height": 0.77000004
  }],
  "comments": [{
    "author": "Clean Heart",
    "comment": "Nice profile, you\u0026#39;re looking very handsome..",
    "commentTime": {
      "timestamp": "1492421636",
      "formatted": "17 Apr 2017, 09:33:56 UTC"
    }
  }]
}